[
  { "x": 1, "y": 64 },
  { "x": 2, "y": 61 },
  { "x": 3, "y": 64 },
  { "x": 4, "y": 62 },
  { "x": 5, "y": 64 },
  { "x": 6, "y": 60 },
  { "x": 7, "y": 58 },
  { "x": 8, "y": 59 },
  { "x": 9, "y": 53 },
  { "x": 10, "y": 54 },
  { "x": 11, "y": 61 },
  { "x": 12, "y": 60 },
  { "x": 13, "y": 55 },
  { "x": 14, "y": 60 },
  { "x": 15, "y": 56 },
  { "x": 16, "y": 60 },
  { "x": 17, "y": 59.5 },
  { "x": 18, "y": 63 },
  { "x": 19, "y": 58 },
  { "x": 20, "y": 54 },
  { "x": 21, "y": 59 },
  { "x": 22, "y": 64 },
  { "x": 23, "y": 100 },
  { "x": 24, "y": 89 },
  { "x": 25, "y": 56 },
  { "x": 26, "y": 84 },
  { "x": 27, "y": 98 },
  { "x": 28, "y": 102 },
  { "x": 29, "y": 78 },
  { "x": 30, "y": 110 }
]
